<?xml version="1.0" encoding="UTF-8" standalone="no"?>
<!-- Created with Inkscape (http://www.inkscape.org/) -->

<svg
   xmlns:dc="http://purl.org/dc/elements/1.1/"
   xmlns:cc="http://creativecommons.org/ns#"
   xmlns:rdf="http://www.w3.org/1999/02/22-rdf-syntax-ns#"
   xmlns:svg="http://www.w3.org/2000/svg"
   xmlns="http://www.w3.org/2000/svg"
   xmlns:sodipodi="http://sodipodi.sourceforge.net/DTD/sodipodi-0.dtd"
   xmlns:inkscape="http://www.inkscape.org/namespaces/inkscape"
   id="svg15219"
   version="1.1"
   inkscape:version="0.91 r13725"
   xml:space="preserve"
   width="606.47803"
   height="249.46124"
   viewBox="0 0 606.47804 249.46124"
   sodipodi:docname="exo_merge.svg"><metadata
     id="metadata15225"><rdf:RDF><cc:Work
         rdf:about=""><dc:format>image/svg+xml</dc:format><dc:type
           rdf:resource="http://purl.org/dc/dcmitype/StillImage" /><dc:title /></cc:Work></rdf:RDF></metadata><defs
     id="defs15223"><marker
       inkscape:isstock="true"
       style="overflow:visible;"
       id="marker6705"
       refX="0.0"
       refY="0.0"
       orient="auto"
       inkscape:stockid="Arrow1Lend"><path
         transform="scale(0.8) rotate(180) translate(12.5,0)"
         style="fill-rule:evenodd;stroke:#000000;stroke-width:1pt;stroke-opacity:1;fill:#000000;fill-opacity:1"
         d="M 0.0,0.0 L 5.0,-5.0 L -12.5,0.0 L 5.0,5.0 L 0.0,0.0 z "
         id="path6707" /></marker><marker
       inkscape:isstock="true"
       style="overflow:visible;"
       id="marker6701"
       refX="0.0"
       refY="0.0"
       orient="auto"
       inkscape:stockid="Arrow1Lend"><path
         transform="scale(0.8) rotate(180) translate(12.5,0)"
         style="fill-rule:evenodd;stroke:#000000;stroke-width:1pt;stroke-opacity:1;fill:#000000;fill-opacity:1"
         d="M 0.0,0.0 L 5.0,-5.0 L -12.5,0.0 L 5.0,5.0 L 0.0,0.0 z "
         id="path6703" /></marker><marker
       inkscape:isstock="true"
       style="overflow:visible;"
       id="marker6697"
       refX="0.0"
       refY="0.0"
       orient="auto"
       inkscape:stockid="Arrow1Lend"><path
         transform="scale(0.8) rotate(180) translate(12.5,0)"
         style="fill-rule:evenodd;stroke:#000000;stroke-width:1pt;stroke-opacity:1;fill:#000000;fill-opacity:1"
         d="M 0.0,0.0 L 5.0,-5.0 L -12.5,0.0 L 5.0,5.0 L 0.0,0.0 z "
         id="path6699" /></marker><marker
       inkscape:isstock="true"
       style="overflow:visible;"
       id="marker6693"
       refX="0.0"
       refY="0.0"
       orient="auto"
       inkscape:stockid="Arrow1Lend"><path
         transform="scale(0.8) rotate(180) translate(12.5,0)"
         style="fill-rule:evenodd;stroke:#000000;stroke-width:1pt;stroke-opacity:1;fill:#000000;fill-opacity:1"
         d="M 0.0,0.0 L 5.0,-5.0 L -12.5,0.0 L 5.0,5.0 L 0.0,0.0 z "
         id="path6695" /></marker><marker
       inkscape:stockid="Arrow1Lend"
       orient="auto"
       refY="0.0"
       refX="0.0"
       id="marker6690"
       style="overflow:visible;"
       inkscape:isstock="true"
       inkscape:collect="always"><path
         id="path4178"
         d="M 0.0,0.0 L 5.0,-5.0 L -12.5,0.0 L 5.0,5.0 L 0.0,0.0 z "
         style="fill-rule:evenodd;stroke:#000000;stroke-width:1pt;stroke-opacity:1;fill:#000000;fill-opacity:1"
         transform="scale(0.8) rotate(180) translate(12.5,0)" /></marker><marker
       inkscape:stockid="Arrow1Lend"
       orient="auto"
       refY="0"
       refX="0"
       id="marker22520"
       style="overflow:visible"
       inkscape:isstock="true"><path
         id="path22522"
         d="M 0,0 5,-5 -12.5,0 5,5 0,0 Z"
         style="fill:#ffc652;fill-opacity:1;fill-rule:evenodd;stroke:#ffc652;stroke-width:1pt;stroke-opacity:1"
         transform="matrix(-0.8,0,0,-0.8,-10,0)"
         inkscape:connector-curvature="0" /></marker><marker
       inkscape:stockid="Arrow1Lend"
       orient="auto"
       refY="0"
       refX="0"
       id="marker22466"
       style="overflow:visible"
       inkscape:isstock="true"><path
         inkscape:connector-curvature="0"
         id="path22468"
         d="M 0,0 5,-5 -12.5,0 5,5 0,0 Z"
         style="fill:#000000;fill-opacity:1;fill-rule:evenodd;stroke:#000000;stroke-width:1pt;stroke-opacity:1"
         transform="matrix(-0.8,0,0,-0.8,-10,0)" /></marker><marker
       inkscape:isstock="true"
       style="overflow:visible"
       id="marker21296"
       refX="0"
       refY="0"
       orient="auto"
       inkscape:stockid="Arrow1Lend"
       inkscape:collect="always"><path
         inkscape:connector-curvature="0"
         transform="matrix(-0.8,0,0,-0.8,-10,0)"
         style="fill:#fd6f34;fill-opacity:1;fill-rule:evenodd;stroke:#fd6f34;stroke-width:1pt;stroke-opacity:1"
         d="M 0,0 5,-5 -12.5,0 5,5 0,0 Z"
         id="path21298" /></marker><marker
       inkscape:stockid="Arrow1Lend"
       orient="auto"
       refY="0"
       refX="0"
       id="Arrow1Lend"
       style="overflow:visible"
       inkscape:isstock="true"
       inkscape:collect="always"><path
         id="path4161"
         d="M 0,0 5,-5 -12.5,0 5,5 0,0 Z"
         style="fill:#fd6f34;fill-opacity:1;fill-rule:evenodd;stroke:#fd6f34;stroke-width:1pt;stroke-opacity:1"
         transform="matrix(-0.8,0,0,-0.8,-10,0)"
         inkscape:connector-curvature="0" /></marker></defs><sodipodi:namedview
     pagecolor="#ffffff"
     bordercolor="#666666"
     borderopacity="1"
     objecttolerance="10"
     gridtolerance="10"
     guidetolerance="10"
     inkscape:pageopacity="0"
     inkscape:pageshadow="2"
     inkscape:window-width="1920"
     inkscape:window-height="1021"
     id="namedview15221"
     showgrid="true"
     fit-margin-top="0"
     fit-margin-left="0"
     fit-margin-right="0"
     fit-margin-bottom="0"
     inkscape:zoom="0.983342"
     inkscape:cx="279.86521"
     inkscape:cy="169.7046"
     inkscape:window-x="-4"
     inkscape:window-y="30"
     inkscape:window-maximized="1"
     inkscape:current-layer="g15227"><inkscape:grid
       type="xygrid"
       id="grid16064"
       originx="-140"
       originy="-6.41551e-06" /></sodipodi:namedview><g
     id="g15227"
     inkscape:groupmode="layer"
     inkscape:label="branches2"
     transform="matrix(1.25,0,0,-1.25,-140.00125,249.46076)"><g
       transform="matrix(1,0,0,-1,0,271.52661)"
       id="g15243"><path
         inkscape:connector-curvature="0"
         id="path15245"
         style="fill:#00e7ff;fill-opacity:1;fill-rule:evenodd;stroke:#000000;stroke-width:1.60000002;stroke-linecap:butt;stroke-linejoin:miter;stroke-miterlimit:4;stroke-dasharray:none;stroke-opacity:1"
         d="m 236.148,216.758 47.047,0 c 6.289,0 11.352,5.062 11.352,11.351 l 0,31.27 c 0,6.285 -5.063,11.348 -11.352,11.348 l -47.047,0 c -6.285,0 -11.347,-5.063 -11.347,-11.348 l 0,-31.27 c 0,-6.289 5.062,-11.351 11.347,-11.351 z" /></g><g
       transform="matrix(1,0,0,-1,0,271.52661)"
       id="g15247"><path
         inkscape:connector-curvature="0"
         id="path15249"
         style="fill:#00e7ff;fill-opacity:1;fill-rule:evenodd;stroke:#000000;stroke-width:1.60000002;stroke-linecap:butt;stroke-linejoin:miter;stroke-miterlimit:4;stroke-dasharray:none;stroke-opacity:1"
         d="m 124.148,216.758 47.047,0 c 6.289,0 11.352,5.062 11.352,11.351 l 0,31.27 c 0,6.285 -5.063,11.348 -11.352,11.348 l -47.047,0 c -6.285,0 -11.347,-5.063 -11.347,-11.348 l 0,-31.27 c 0,-6.289 5.062,-11.351 11.347,-11.351 z" /></g><g
       transform="matrix(1,0,0,-1,0,271.52661)"
       id="g15279"><path
         inkscape:connector-curvature="0"
         id="path15281"
         style="fill:#00e7ff;fill-opacity:1;fill-rule:evenodd;stroke:#000000;stroke-width:1.60000002;stroke-linecap:butt;stroke-linejoin:miter;stroke-miterlimit:4;stroke-dasharray:none;stroke-opacity:1"
         d="m 236.148,72.758 47.047,0 c 6.289,0 11.352,5.062 11.352,11.351 l 0,31.27 c 0,6.285 -5.063,11.348 -11.352,11.348 l -47.047,0 c -6.285,0 -11.347,-5.063 -11.347,-11.348 l 0,-31.27 c 0,-6.289 5.062,-11.351 11.347,-11.351 z" /></g><g
       transform="matrix(1,0,0,-1,0,271.52661)"
       id="g15287"><path
         inkscape:connector-curvature="0"
         id="path15289"
         style="fill:#00e7ff;fill-opacity:1;fill-rule:evenodd;stroke:#000000;stroke-width:1.60000002;stroke-linecap:butt;stroke-linejoin:miter;stroke-miterlimit:4;stroke-dasharray:none;stroke-opacity:1"
         d="m 348.148,72.758 47.047,0 c 6.289,0 11.352,5.062 11.352,11.351 l 0,31.27 c 0,6.285 -5.063,11.348 -11.352,11.348 l -47.047,0 c -6.285,0 -11.347,-5.063 -11.347,-11.348 l 0,-31.27 c 0,-6.289 5.062,-11.351 11.347,-11.351 z" /></g><path
       inkscape:connector-curvature="0"
       id="path15327"
       style="fill:#fd6f34;fill-opacity:1;fill-rule:nonzero;stroke:none"
       d="m 428.78121,185.58127 75.316,0 0,-36.113 -75.316,0 0,36.113 z" /><text
       id="text15329"
       style="font-style:oblique;font-variant:normal;font-size:14px;font-family:'DejaVu Sans';-inkscape-font-specification:DejaVuSans-Oblique;writing-mode:lr-tb;fill:#000000;fill-opacity:1;fill-rule:nonzero;stroke:none"
       transform="scale(1,-1)"
       x="445.78278"
       y="-163.60568"><tspan
         id="tspan15331"
         sodipodi:role="line"
         y="-163.60568"
         x="445.78278 456.29697 465.1311 474.70728">HEAD</tspan></text>
<path
       inkscape:connector-curvature="0"
       id="path15333"
       style="fill:#fd6f34;fill-opacity:1;fill-rule:nonzero;stroke:none"
       d="m 428.33122,127.85022 75.316,0 0,-36.112996 -75.316,0 0,36.112996 z" /><text
       id="text15335"
       style="font-style:oblique;font-variant:normal;font-size:14px;font-family:'DejaVu Sans';-inkscape-font-specification:DejaVuSans-Oblique;writing-mode:lr-tb;fill:#000000;fill-opacity:1;fill-rule:nonzero;stroke:none"
       transform="scale(1,-1)"
       x="439.05585"
       y="-105.55812"><tspan
         id="tspan15337"
         sodipodi:role="line"
         y="-105.55812"
         x="439.05585 452.69208 461.26025 468.54041 474.02856 482.6387">master</tspan></text>
<g
       transform="matrix(1,0,0,-1,-16,271.52661)"
       id="g15347"><path
         inkscape:connector-curvature="0"
         id="path15349"
         style="fill:none;stroke:#fd6f34;stroke-width:0.80000001;stroke-linecap:butt;stroke-linejoin:miter;stroke-miterlimit:4;stroke-dasharray:none;stroke-opacity:1"
         d="m 482.586,179.383 0.391,36.644" /></g><g
       transform="matrix(-0.0106013,1,1,0.0106013,-16,271.52661)"
       id="g15351"><path
         inkscape:connector-curvature="0"
         id="path15353"
         style="fill:#fd6f34;fill-opacity:1;fill-rule:evenodd;stroke:#fd6f34;stroke-width:0.79995501;stroke-linecap:butt;stroke-linejoin:miter;stroke-miterlimit:4;stroke-dasharray:none;stroke-opacity:1"
         d="m -213.127,480.631 3.202,-3.2 -11.198,3.201 11.197,3.201 -3.201,-3.202 z" /></g><path
       inkscape:connector-curvature="0"
       id="path15355"
       style="fill:#fd6f34;fill-opacity:1;fill-rule:nonzero;stroke:none"
       d="m 521.86742,128.34182 75.316,0 0,-36.108999 -75.316,0 0,36.108999 z" /><text
       id="text15357"
       style="font-style:oblique;font-variant:normal;font-size:14px;font-family:'DejaVu Sans';-inkscape-font-specification:DejaVuSans-Oblique;writing-mode:lr-tb;fill:#000000;fill-opacity:1;fill-rule:nonzero;stroke:none"
       transform="scale(1,-1)"
       x="538.58313"
       y="-105.6434"><tspan
         id="tspan15359"
         sodipodi:role="line"
         y="-105.6434"
         x="538.58313 547.45911 556.06909 564.34314 572.95331">devel</tspan></text>
<path
       style="display:inline;fill:none;fill-rule:evenodd;stroke:#fd6f34;stroke-width:0.95999998;stroke-linecap:butt;stroke-linejoin:miter;stroke-miterlimit:4;stroke-dasharray:none;stroke-opacity:1;marker-end:url(#Arrow1Lend)"
       d="m 466.29847,149.46827 -0.16851,-21.61805"
       id="path16018"
       inkscape:connector-type="polyline"
       inkscape:connector-curvature="0"
       inkscape:connection-start="#path15327"
       inkscape:connection-end="#path15333" /><g
       id="g20117"
       transform="matrix(1,0,0,-1,320,271.52661)"><path
         d="m 124.148,216.758 47.047,0 c 6.289,0 11.352,5.062 11.352,11.351 l 0,31.27 c 0,6.285 -5.063,11.348 -11.352,11.348 l -47.047,0 c -6.285,0 -11.347,-5.063 -11.347,-11.348 l 0,-31.27 c 0,-6.289 5.062,-11.351 11.347,-11.351 z"
         style="fill:#00e7ff;fill-opacity:1;fill-rule:evenodd;stroke:#000000;stroke-width:1.60000002;stroke-linecap:butt;stroke-linejoin:miter;stroke-miterlimit:4;stroke-dasharray:none;stroke-opacity:1"
         id="path20119"
         inkscape:connector-curvature="0" /></g><path
       style="fill:none;fill-rule:evenodd;stroke:#fd6f34;stroke-width:0.95999998;stroke-linecap:butt;stroke-linejoin:miter;stroke-miterlimit:4;stroke-dasharray:none;stroke-opacity:1;marker-end:url(#marker21296)"
       d="M 539.42522,92.232821 496.34995,53.541558"
       id="path20392"
       inkscape:connector-type="polyline"
       inkscape:connector-curvature="0"
       inkscape:connection-start="#path15355"
       inkscape:connection-end="#g20117" /><text
       xml:space="preserve"
       style="font-style:normal;font-weight:normal;font-size:32px;line-height:125%;font-family:sans-serif;letter-spacing:0px;word-spacing:0px;fill:#000000;fill-opacity:1;stroke:none;stroke-width:1px;stroke-linecap:butt;stroke-linejoin:miter;stroke-opacity:1"
       x="128.00098"
       y="-17.599606"
       id="text22422"
       sodipodi:linespacing="125%"
       transform="scale(1,-1)"><tspan
         sodipodi:role="line"
         id="tspan22424"
         x="128.00098"
         y="-17.599606">C1</tspan></text>
<text
       transform="scale(1,-1)"
       sodipodi:linespacing="125%"
       id="text22426"
       y="-17.599606"
       x="240.00098"
       style="font-style:normal;font-weight:normal;font-size:32px;line-height:125%;font-family:sans-serif;letter-spacing:0px;word-spacing:0px;fill:#000000;fill-opacity:1;stroke:none;stroke-width:1px;stroke-linecap:butt;stroke-linejoin:miter;stroke-opacity:1"
       xml:space="preserve"><tspan
         y="-17.599606"
         x="240.00098"
         id="tspan22428"
         sodipodi:role="line">C3</tspan></text>
<text
       transform="scale(1,-1)"
       sodipodi:linespacing="125%"
       id="text22430"
       y="-161.59961"
       x="240.00098"
       style="font-style:normal;font-weight:normal;font-size:32px;line-height:125%;font-family:sans-serif;letter-spacing:0px;word-spacing:0px;fill:#000000;fill-opacity:1;stroke:none;stroke-width:1px;stroke-linecap:butt;stroke-linejoin:miter;stroke-opacity:1"
       xml:space="preserve"><tspan
         y="-161.59961"
         x="240.00098"
         id="tspan22432"
         sodipodi:role="line">C2</tspan></text>
<text
       xml:space="preserve"
       style="font-style:normal;font-weight:normal;font-size:32px;line-height:125%;font-family:sans-serif;letter-spacing:0px;word-spacing:0px;fill:#000000;fill-opacity:1;stroke:none;stroke-width:1px;stroke-linecap:butt;stroke-linejoin:miter;stroke-opacity:1"
       x="352.00098"
       y="-161.59961"
       id="text22434"
       sodipodi:linespacing="125%"
       transform="scale(1,-1)"><tspan
         sodipodi:role="line"
         id="tspan22436"
         x="352.00098"
         y="-161.59961">C4</tspan></text>
<text
       xml:space="preserve"
       style="font-style:normal;font-weight:normal;font-size:32px;line-height:125%;font-family:sans-serif;letter-spacing:0px;word-spacing:0px;fill:#000000;fill-opacity:1;stroke:none;stroke-width:1px;stroke-linecap:butt;stroke-linejoin:miter;stroke-opacity:1"
       x="448.00171"
       y="-17.599606"
       id="text22454"
       sodipodi:linespacing="125%"
       transform="scale(1,-1)"><tspan
         sodipodi:role="line"
         id="tspan22456"
         x="448.00171"
         y="-17.599606">C5</tspan></text>
<path
       d="m 113.86742,128.34182 75.316,0 0,-36.108999 -75.316,0 0,36.108999 z"
       style="fill:#ffc652;fill-opacity:1;fill-rule:nonzero;stroke:#ffc652;stroke-opacity:1"
       id="path22512"
       inkscape:connector-curvature="0" /><text
       y="-105.6434"
       x="128.98309"
       transform="scale(1,-1)"
       style="font-style:oblique;font-variant:normal;font-size:14px;font-family:'DejaVu Sans';-inkscape-font-specification:DejaVuSans-Oblique;writing-mode:lr-tb;fill:#000000;fill-opacity:1;fill-rule:nonzero;stroke:none"
       id="text22514"><tspan
         x="128.98309"
         y="-105.6434"
         sodipodi:role="line"
         id="tspan22516">tag:v1</tspan></text>
<path
       inkscape:connector-curvature="0"
       inkscape:connector-type="polyline"
       id="path22518"
       d="M 150.6826,92.232821 148.93369,54.76861"
       style="display:inline;fill:#ffc652;fill-opacity:1;fill-rule:evenodd;stroke:#ffc652;stroke-width:0.95999998;stroke-linecap:butt;stroke-linejoin:miter;stroke-miterlimit:4;stroke-dasharray:none;stroke-opacity:1;marker-end:url(#marker22520)"
       inkscape:connection-end="#g15247"
       inkscape:connection-start="#path22512" /><path
       style="fill:none;fill-rule:evenodd;stroke:#000000;stroke-width:0.96;stroke-linecap:butt;stroke-linejoin:miter;stroke-opacity:1;stroke-miterlimit:4;stroke-dasharray:none;marker-end:url(#marker6693)"
       d="m 432.801,27.78411 -138.254,0"
       id="path6678"
       inkscape:connector-type="polyline"
       inkscape:connector-curvature="0"
       inkscape:connection-start="#g20117"
       inkscape:connection-end="#g15243" /><path
       style="fill:none;fill-rule:evenodd;stroke:#000000;stroke-width:0.96;stroke-linecap:butt;stroke-linejoin:miter;stroke-opacity:1;stroke-miterlimit:4;stroke-dasharray:none;marker-end:url(#marker6705)"
       d="m 224.801,27.78411 -42.254,0"
       id="path6680"
       inkscape:connector-type="polyline"
       inkscape:connector-curvature="0"
       inkscape:connection-start="#g15243"
       inkscape:connection-end="#g15247" /><path
       style="fill:none;fill-rule:evenodd;stroke:#000000;stroke-width:0.96;stroke-linecap:butt;stroke-linejoin:miter;stroke-opacity:1;stroke-miterlimit:4;stroke-dasharray:none;marker-end:url(#marker6697)"
       d="m 336.801,171.78411 -42.254,0"
       id="path6684"
       inkscape:connector-type="polyline"
       inkscape:connector-curvature="0"
       inkscape:connection-start="#g15287"
       inkscape:connection-end="#g15279" /><path
       style="fill:none;fill-rule:evenodd;stroke:#000000;stroke-width:0.96;stroke-linecap:butt;stroke-linejoin:miter;stroke-opacity:1;stroke-miterlimit:4;stroke-dasharray:none;marker-end:url(#marker6690)"
       d="m 449.68433,54.76861 -60.02066,90.031"
       id="path6686"
       inkscape:connector-type="polyline"
       inkscape:connector-curvature="0"
       inkscape:connection-start="#g20117"
       inkscape:connection-end="#g15287" /><path
       style="fill:none;fill-rule:evenodd;stroke:#000000;stroke-width:0.96;stroke-linecap:butt;stroke-linejoin:miter;stroke-opacity:1;stroke-miterlimit:4;stroke-dasharray:none;marker-end:url(#marker6701)"
       d="m 238.68606,144.79961 -70.02412,-90.031"
       id="path6688"
       inkscape:connector-type="polyline"
       inkscape:connector-curvature="0"
       inkscape:connection-start="#g15279"
       inkscape:connection-end="#g15247" /></g></svg>